%YAML 1.1
%TAG !u! tag:unity3d.com,2011:
--- !u!114 &11400000
MonoBehaviour:
  m_ObjectHideFlags: 0
  m_CorrespondingSourceObject: {fileID: 0}
  m_PrefabInstance: {fileID: 0}
  m_PrefabAsset: {fileID: 0}
  m_GameObject: {fileID: 0}
  m_Enabled: 1
  m_EditorHideFlags: 0
  m_Script: {fileID: 11500000, guid: bfee43958e28c72459a983cc92f2e5f4, type: 3}
  m_Name: pyramid
  m_EditorClassIdentifier: 
  storyText: 'You are taken to the top of the pyramid to be sacrificed.

    

    1.
    Restart'
  nextStates:
  - {fileID: 11400000, guid: 9c42ffe9bd64bd84c966f03f8c911d57, type: 2}
