%YAML 1.1
%TAG !u! tag:unity3d.com,2011:
--- !u!114 &11400000
MonoBehaviour:
  m_ObjectHideFlags: 0
  m_CorrespondingSourceObject: {fileID: 0}
  m_PrefabInstance: {fileID: 0}
  m_PrefabAsset: {fileID: 0}
  m_GameObject: {fileID: 0}
  m_Enabled: 1
  m_EditorHideFlags: 0
  m_Script: {fileID: 11500000, guid: bfee43958e28c72459a983cc92f2e5f4, type: 3}
  m_Name: window
  m_EditorClassIdentifier: 
  storyText: 'There''s a stray cat looking at you.

    

    1. Pet her.

    2.
    Run to the forest.'
  nextStates:
  - {fileID: 11400000, guid: d2065b81bb8992a458b23008ac424e1c, type: 2}
  - {fileID: 11400000, guid: 496a8d959794d334695b74ddc7baff5c, type: 2}
